%!PS-Adobe-3.0 EPSF-3.0
%%Title: images/Average_faceted_new.eps
%%Creator: matplotlib version 2.2.2, http://matplotlib.org/
%%CreationDate: Wed Aug 22 15:59:38 2018
%%Orientation: portrait
%%BoundingBox: -342 252 954 540
%%EndComments
%%BeginProlog
/mpldict 8 dict def
mpldict begin
/m { moveto } bind def
/l { lineto } bind def
/r { rlineto } bind def
/c { curveto } bind def
/cl { closepath } bind def
/box {
m
1 index 0 r
0 exch r
neg 0 r
cl
} bind def
/clipbox {
box
clip
newpath
} bind def
%!PS-Adobe-3.0 Resource-Font
%%Title: DejaVu Sans
%%Copyright: Copyright (c) 2003 by Bitstream, Inc. All Rights Reserved. Copyright (c) 2006 by Tavmjong Bah. All Rights Reserved. DejaVu changes are in public domain 
%%Creator: Converted from TrueType to type 3 by PPR
25 dict begin
/_d{bind def}bind def
/_m{moveto}_d
/_l{lineto}_d
/_cl{closepath eofill}_d
/_c{curveto}_d
/_sc{7 -1 roll{setcachedevice}{pop pop pop pop pop pop}ifelse}_d
/_e{exec}_d
/FontName /DejaVuSans def
/PaintType 0 def
/FontMatrix[.001 0 0 .001 0 0]def
/FontBBox[-1021 -463 1793 1232]def
/FontType 3 def
/Encoding [ /zero /one /two /three /four /five ] def
/FontInfo 10 dict dup begin
/FamilyName (DejaVu Sans) def
/FullName (DejaVu Sans) def
/Notice (Copyright (c) 2003 by Bitstream, Inc. All Rights Reserved. Copyright (c) 2006 by Tavmjong Bah. All Rights Reserved. DejaVu changes are in public domain ) def
/Weight (Book) def
/Version (Version 2.35) def
/ItalicAngle 0.0 def
/isFixedPitch false def
/UnderlinePosition -130 def
/UnderlineThickness 90 def
end readonly def
/CharStrings 7 dict dup begin
/.notdef 0 def
/zero{636 0 66 -13 570 742 _sc
318 664 _m
267 664 229 639 203 589 _c
177 539 165 464 165 364 _c
165 264 177 189 203 139 _c
229 89 267 64 318 64 _c
369 64 407 89 433 139 _c
458 189 471 264 471 364 _c
471 464 458 539 433 589 _c
407 639 369 664 318 664 _c
318 742 _m
399 742 461 709 505 645 _c
548 580 570 486 570 364 _c
570 241 548 147 505 83 _c
461 19 399 -13 318 -13 _c
236 -13 173 19 130 83 _c
87 147 66 241 66 364 _c
66 486 87 580 130 645 _c
173 709 236 742 318 742 _c
_cl}_d
/one{636 0 110 0 544 729 _sc
124 83 _m
285 83 _l
285 639 _l
110 604 _l
110 694 _l
284 729 _l
383 729 _l
383 83 _l
544 83 _l
544 0 _l
124 0 _l
124 83 _l
_cl}_d
/two{{636 0 73 0 536 742 _sc
192 83 _m
536 83 _l
536 0 _l
73 0 _l
73 83 _l
110 121 161 173 226 239 _c
290 304 331 346 348 365 _c
380 400 402 430 414 455 _c
426 479 433 504 433 528 _c
433 566 419 598 392 622 _c
365 646 330 659 286 659 _c
255 659 222 653 188 643 _c
154 632 117 616 78 594 _c
78 694 _l
118 710 155 722 189 730 _c
223 738 255 742 284 742 _c
}_e{359 742 419 723 464 685 _c
509 647 532 597 532 534 _c
532 504 526 475 515 449 _c
504 422 484 390 454 354 _c
446 344 420 317 376 272 _c
332 227 271 164 192 83 _c
_cl}_e}_d
/three{{636 0 76 -13 556 742 _sc
406 393 _m
453 383 490 362 516 330 _c
542 298 556 258 556 212 _c
556 140 531 84 482 45 _c
432 6 362 -13 271 -13 _c
240 -13 208 -10 176 -4 _c
144 1 110 10 76 22 _c
76 117 _l
103 101 133 89 166 81 _c
198 73 232 69 268 69 _c
330 69 377 81 409 105 _c
441 129 458 165 458 212 _c
458 254 443 288 413 312 _c
383 336 341 349 287 349 _c
}_e{202 349 _l
202 430 _l
291 430 _l
339 430 376 439 402 459 _c
428 478 441 506 441 543 _c
441 580 427 609 401 629 _c
374 649 336 659 287 659 _c
260 659 231 656 200 650 _c
169 644 135 635 98 623 _c
98 711 _l
135 721 170 729 203 734 _c
235 739 266 742 296 742 _c
370 742 429 725 473 691 _c
517 657 539 611 539 553 _c
539 513 527 479 504 451 _c
481 423 448 403 406 393 _c
_cl}_e}_d
/four{636 0 49 0 580 729 _sc
378 643 _m
129 254 _l
378 254 _l
378 643 _l
352 729 _m
476 729 _l
476 254 _l
580 254 _l
580 172 _l
476 172 _l
476 0 _l
378 0 _l
378 172 _l
49 172 _l
49 267 _l
352 729 _l
_cl}_d
/five{{636 0 77 -13 549 729 _sc
108 729 _m
495 729 _l
495 646 _l
198 646 _l
198 467 _l
212 472 227 476 241 478 _c
255 480 270 482 284 482 _c
365 482 429 459 477 415 _c
525 370 549 310 549 234 _c
549 155 524 94 475 51 _c
426 8 357 -13 269 -13 _c
238 -13 207 -10 175 -6 _c
143 -1 111 6 77 17 _c
77 116 _l
106 100 136 88 168 80 _c
199 72 232 69 267 69 _c
}_e{323 69 368 83 401 113 _c
433 143 450 183 450 234 _c
450 284 433 324 401 354 _c
368 384 323 399 267 399 _c
241 399 214 396 188 390 _c
162 384 135 375 108 363 _c
108 729 _l
_cl}_e}_d
end readonly def

/BuildGlyph
 {exch begin
 CharStrings exch
 2 copy known not{pop /.notdef}if
 true 3 1 roll get exec
 end}_d

/BuildChar {
 1 index /Encoding get exch get
 1 index /BuildGlyph get exec
}_d

FontName currentdict end definefont pop
end
%%EndProlog
mpldict begin
-342 252 translate
1296 288 0 0 clipbox
gsave
0 0 m
1296 0 l
1296 288 l
0 288 l
cl
1.000 setgray
fill
grestore
gsave
162 31.68 m
366.979592 31.68 l
366.979592 253.44 l
162 253.44 l
cl
1.000 setgray
fill
grestore
0.800 setlinewidth
1 setlinejoin
0 setlinecap
[] 0 setdash
0.000 setgray
gsave
/o {
gsave
newpath
translate
0.8 setlinewidth
1 setlinejoin
0 setlinecap
0 0 m
0 -3.5 l

gsave
0.000 setgray
fill
grestore
stroke
grestore
} bind def
162 31.68 o
grestore
/DejaVuSans findfont
16.000 scalefont
setfont
gsave
151.812500 12.523750 translate
0.000000 rotate
0.000000 0.000000 m /three glyphshow
10.179688 0.000000 m /zero glyphshow
grestore
gsave
/o {
gsave
newpath
translate
0.8 setlinewidth
1 setlinejoin
0 setlinecap
0 0 m
0 -3.5 l

gsave
0.000 setgray
fill
grestore
stroke
grestore
} bind def
243.992 31.68 o
grestore
gsave
233.804337 12.523750 translate
0.000000 rotate
0.000000 0.000000 m /four glyphshow
10.179688 0.000000 m /zero glyphshow
grestore
gsave
/o {
gsave
newpath
translate
0.8 setlinewidth
1 setlinejoin
0 setlinecap
0 0 m
0 -3.5 l

gsave
0.000 setgray
fill
grestore
stroke
grestore
} bind def
325.984 31.68 o
grestore
gsave
315.796173 12.523750 translate
0.000000 rotate
0.000000 0.000000 m /five glyphshow
10.179688 0.000000 m /zero glyphshow
grestore
gsave
/o {
gsave
newpath
translate
0.8 setlinewidth
1 setlinejoin
0 setlinecap
0 0 m
-3.5 0 l

gsave
0.000 setgray
fill
grestore
stroke
grestore
} bind def
162 31.68 o
grestore
gsave
144.812500 25.601875 translate
0.000000 rotate
0.000000 0.000000 m /zero glyphshow
grestore
gsave
/o {
gsave
newpath
translate
0.8 setlinewidth
1 setlinejoin
0 setlinecap
0 0 m
-3.5 0 l

gsave
0.000 setgray
fill
grestore
stroke
grestore
} bind def
162 68.64 o
grestore
gsave
144.812500 62.561875 translate
0.000000 rotate
0.000000 0.000000 m /five glyphshow
grestore
gsave
/o {
gsave
newpath
translate
0.8 setlinewidth
1 setlinejoin
0 setlinecap
0 0 m
-3.5 0 l

gsave
0.000 setgray
fill
grestore
stroke
grestore
} bind def
162 105.6 o
grestore
gsave
134.625000 99.521875 translate
0.000000 rotate
0.000000 0.000000 m /one glyphshow
10.179688 0.000000 m /zero glyphshow
grestore
gsave
/o {
gsave
newpath
translate
0.8 setlinewidth
1 setlinejoin
0 setlinecap
0 0 m
-3.5 0 l

gsave
0.000 setgray
fill
grestore
stroke
grestore
} bind def
162 142.56 o
grestore
gsave
134.625000 136.481875 translate
0.000000 rotate
0.000000 0.000000 m /one glyphshow
10.179688 0.000000 m /five glyphshow
grestore
gsave
/o {
gsave
newpath
translate
0.8 setlinewidth
1 setlinejoin
0 setlinecap
0 0 m
-3.5 0 l

gsave
0.000 setgray
fill
grestore
stroke
grestore
} bind def
162 179.52 o
grestore
gsave
134.625000 173.441875 translate
0.000000 rotate
0.000000 0.000000 m /two glyphshow
10.179688 0.000000 m /zero glyphshow
grestore
gsave
/o {
gsave
newpath
translate
0.8 setlinewidth
1 setlinejoin
0 setlinecap
0 0 m
-3.5 0 l

gsave
0.000 setgray
fill
grestore
stroke
grestore
} bind def
162 216.48 o
grestore
gsave
134.625000 210.401875 translate
0.000000 rotate
0.000000 0.000000 m /two glyphshow
10.179688 0.000000 m /five glyphshow
grestore
gsave
/o {
gsave
newpath
translate
0.8 setlinewidth
1 setlinejoin
0 setlinecap
0 0 m
-3.5 0 l

gsave
0.000 setgray
fill
grestore
stroke
grestore
} bind def
162 253.44 o
grestore
gsave
134.625000 247.361875 translate
0.000000 rotate
0.000000 0.000000 m /three glyphshow
10.179688 0.000000 m /zero glyphshow
grestore
1.500 setlinewidth
0.169 0.545 0.153 setrgbcolor
gsave
205 221.8 162 31.68 clipbox
189.431353 76.311204 m
189.431353 77.389436 l
stroke
grestore
gsave
205 221.8 162 31.68 clipbox
207.962263 58.653232 m
207.962263 142.357888 l
stroke
grestore
gsave
205 221.8 162 31.68 clipbox
227.100743 63.243029 m
227.100743 152.281664 l
stroke
grestore
gsave
205 221.8 162 31.68 clipbox
246.846795 56.125405 m
246.846795 139.662622 l
stroke
grestore
gsave
205 221.8 162 31.68 clipbox
267.200417 64.103365 m
267.200417 195.551809 l
stroke
grestore
gsave
205 221.8 162 31.68 clipbox
288.161609 66.669925 m
288.161609 170.282503 l
stroke
grestore
gsave
205 221.8 162 31.68 clipbox
309.730373 91.008939 m
309.730373 213.382522 l
stroke
grestore
gsave
205 221.8 162 31.68 clipbox
331.906708 120.306582 m
331.906708 230.25502 l
stroke
grestore
1.000 setlinewidth
gsave
205 221.8 162 31.68 clipbox
/o {
gsave
newpath
translate
1.0 setlinewidth
1 setlinejoin
0 setlinecap
6 -0 m
-6 0 l

gsave
0.169 0.545 0.153 setrgbcolor
fill
grestore
stroke
grestore
} bind def
189.431 76.3112 o
207.962 58.6532 o
227.101 63.243 o
246.847 56.1254 o
267.2 64.1034 o
288.162 66.6699 o
309.73 91.0089 o
331.907 120.307 o
grestore
gsave
205 221.8 162 31.68 clipbox
/o {
gsave
newpath
translate
1.0 setlinewidth
1 setlinejoin
0 setlinecap
6 -0 m
-6 0 l

gsave
0.169 0.545 0.153 setrgbcolor
fill
grestore
stroke
grestore
} bind def
189.431 77.3894 o
207.962 142.358 o
227.101 152.282 o
246.847 139.663 o
267.2 195.552 o
288.162 170.283 o
309.73 213.383 o
331.907 230.255 o
grestore
1.500 setlinewidth
[5.55 2.4] 0 setdash
0.745 0.118 0.153 setrgbcolor
gsave
205 221.8 162 31.68 clipbox
162 79.728 m
366.979592 79.728 l
stroke
grestore
gsave
205 221.8 162 31.68 clipbox
162 127.776 m
366.979592 127.776 l
stroke
grestore
1.000 setlinewidth
0 setlinejoin
[] 0 setdash
0.169 0.545 0.153 setrgbcolor
gsave
205 221.8 162 31.68 clipbox
/o {
gsave
newpath
translate
1.0 setlinewidth
0 setlinejoin
0 setlinecap
0 4 m
-4 -4 l
4 -4 l
cl

gsave
0.169 0.545 0.153 setrgbcolor
fill
grestore
stroke
grestore
} bind def
189.431 76.8503 o
207.962 100.506 o
227.101 107.762 o
246.847 97.894 o
267.2 129.828 o
288.162 118.476 o
309.73 152.196 o
331.907 175.281 o
grestore
0.800 setlinewidth
2 setlinecap
[] 0 setdash
0.000 setgray
gsave
162 31.68 m
162 253.44 l
stroke
grestore
gsave
162 31.68 m
366.979592 31.68 l
stroke
grestore
gsave
428.473469 31.68 m
633.453061 31.68 l
633.453061 253.44 l
428.473469 253.44 l
cl
1.000 setgray
fill
grestore
1 setlinejoin
0 setlinecap
[] 0 setdash
gsave
/o {
gsave
newpath
translate
0.8 setlinewidth
1 setlinejoin
0 setlinecap
0 0 m
0 -3.5 l

gsave
0.000 setgray
fill
grestore
stroke
grestore
} bind def
428.473 31.68 o
grestore
gsave
418.285969 12.523750 translate
0.000000 rotate
0.000000 0.000000 m /three glyphshow
10.179688 0.000000 m /zero glyphshow
grestore
gsave
/o {
gsave
newpath
translate
0.8 setlinewidth
1 setlinejoin
0 setlinecap
0 0 m
0 -3.5 l

gsave
0.000 setgray
fill
grestore
stroke
grestore
} bind def
510.465 31.68 o
grestore
gsave
500.277806 12.523750 translate
0.000000 rotate
0.000000 0.000000 m /four glyphshow
10.179688 0.000000 m /zero glyphshow
grestore
gsave
/o {
gsave
newpath
translate
0.8 setlinewidth
1 setlinejoin
0 setlinecap
0 0 m
0 -3.5 l

gsave
0.000 setgray
fill
grestore
stroke
grestore
} bind def
592.457 31.68 o
grestore
gsave
582.269643 12.523750 translate
0.000000 rotate
0.000000 0.000000 m /five glyphshow
10.179688 0.000000 m /zero glyphshow
grestore
gsave
/o {
gsave
newpath
translate
0.8 setlinewidth
1 setlinejoin
0 setlinecap
0 0 m
-3.5 0 l

gsave
0.000 setgray
fill
grestore
stroke
grestore
} bind def
428.473 31.68 o
grestore
gsave
411.285969 25.601875 translate
0.000000 rotate
0.000000 0.000000 m /zero glyphshow
grestore
gsave
/o {
gsave
newpath
translate
0.8 setlinewidth
1 setlinejoin
0 setlinecap
0 0 m
-3.5 0 l

gsave
0.000 setgray
fill
grestore
stroke
grestore
} bind def
428.473 68.64 o
grestore
gsave
411.285969 62.561875 translate
0.000000 rotate
0.000000 0.000000 m /five glyphshow
grestore
gsave
/o {
gsave
newpath
translate
0.8 setlinewidth
1 setlinejoin
0 setlinecap
0 0 m
-3.5 0 l

gsave
0.000 setgray
fill
grestore
stroke
grestore
} bind def
428.473 105.6 o
grestore
gsave
401.098469 99.521875 translate
0.000000 rotate
0.000000 0.000000 m /one glyphshow
10.179688 0.000000 m /zero glyphshow
grestore
gsave
/o {
gsave
newpath
translate
0.8 setlinewidth
1 setlinejoin
0 setlinecap
0 0 m
-3.5 0 l

gsave
0.000 setgray
fill
grestore
stroke
grestore
} bind def
428.473 142.56 o
grestore
gsave
401.098469 136.481875 translate
0.000000 rotate
0.000000 0.000000 m /one glyphshow
10.179688 0.000000 m /five glyphshow
grestore
gsave
/o {
gsave
newpath
translate
0.8 setlinewidth
1 setlinejoin
0 setlinecap
0 0 m
-3.5 0 l

gsave
0.000 setgray
fill
grestore
stroke
grestore
} bind def
428.473 179.52 o
grestore
gsave
401.098469 173.441875 translate
0.000000 rotate
0.000000 0.000000 m /two glyphshow
10.179688 0.000000 m /zero glyphshow
grestore
gsave
/o {
gsave
newpath
translate
0.8 setlinewidth
1 setlinejoin
0 setlinecap
0 0 m
-3.5 0 l

gsave
0.000 setgray
fill
grestore
stroke
grestore
} bind def
428.473 216.48 o
grestore
gsave
401.098469 210.401875 translate
0.000000 rotate
0.000000 0.000000 m /two glyphshow
10.179688 0.000000 m /five glyphshow
grestore
gsave
/o {
gsave
newpath
translate
0.8 setlinewidth
1 setlinejoin
0 setlinecap
0 0 m
-3.5 0 l

gsave
0.000 setgray
fill
grestore
stroke
grestore
} bind def
428.473 253.44 o
grestore
gsave
401.098469 247.361875 translate
0.000000 rotate
0.000000 0.000000 m /three glyphshow
10.179688 0.000000 m /zero glyphshow
grestore
1.500 setlinewidth
0.169 0.545 0.153 setrgbcolor
gsave
205 221.8 428.5 31.68 clipbox
455.904823 59.555533 m
455.904823 144.881951 l
stroke
grestore
gsave
205 221.8 428.5 31.68 clipbox
474.435732 63.969629 m
474.435732 128.95925 l
stroke
grestore
gsave
205 221.8 428.5 31.68 clipbox
493.574213 70.338233 m
493.574213 128.671451 l
stroke
grestore
gsave
205 221.8 428.5 31.68 clipbox
513.320264 107.964876 m
513.320264 227.863198 l
stroke
grestore
gsave
205 221.8 428.5 31.68 clipbox
533.673886 103.023171 m
533.673886 230.813254 l
stroke
grestore
gsave
205 221.8 428.5 31.68 clipbox
554.635079 172.845454 m
554.635079 215.400937 l
stroke
grestore
gsave
205 221.8 428.5 31.68 clipbox
576.203842 199.282542 m
576.203842 221.849959 l
stroke
grestore
gsave
205 221.8 428.5 31.68 clipbox
598.380177 195.322632 m
598.380177 225.323336 l
stroke
grestore
1.000 setlinewidth
gsave
205 221.8 428.5 31.68 clipbox
/o {
gsave
newpath
translate
1.0 setlinewidth
1 setlinejoin
0 setlinecap
6 -0 m
-6 0 l

gsave
0.169 0.545 0.153 setrgbcolor
fill
grestore
stroke
grestore
} bind def
455.905 59.5555 o
474.436 63.9696 o
493.574 70.3382 o
513.32 107.965 o
533.674 103.023 o
554.635 172.845 o
576.204 199.283 o
598.38 195.323 o
grestore
gsave
205 221.8 428.5 31.68 clipbox
/o {
gsave
newpath
translate
1.0 setlinewidth
1 setlinejoin
0 setlinecap
6 -0 m
-6 0 l

gsave
0.169 0.545 0.153 setrgbcolor
fill
grestore
stroke
grestore
} bind def
455.905 144.882 o
474.436 128.959 o
493.574 128.671 o
513.32 227.863 o
533.674 230.813 o
554.635 215.401 o
576.204 221.85 o
598.38 225.323 o
grestore
1.500 setlinewidth
[5.55 2.4] 0 setdash
0.745 0.118 0.153 setrgbcolor
gsave
205 221.8 428.5 31.68 clipbox
428.473469 79.728 m
633.453061 79.728 l
stroke
grestore
gsave
205 221.8 428.5 31.68 clipbox
428.473469 127.776 m
633.453061 127.776 l
stroke
grestore
1.000 setlinewidth
0 setlinejoin
[] 0 setdash
0.169 0.545 0.153 setrgbcolor
gsave
205 221.8 428.5 31.68 clipbox
/o {
gsave
newpath
translate
1.0 setlinewidth
0 setlinejoin
0 setlinecap
0 4 m
-4 -4 l
4 -4 l
cl

gsave
0.169 0.545 0.153 setrgbcolor
fill
grestore
stroke
grestore
} bind def
455.905 102.219 o
474.436 96.4644 o
493.574 99.5048 o
513.32 167.914 o
533.674 166.918 o
554.635 194.123 o
576.204 210.566 o
598.38 210.323 o
grestore
0.800 setlinewidth
2 setlinecap
[] 0 setdash
0.000 setgray
gsave
428.473469 31.68 m
428.473469 253.44 l
stroke
grestore
gsave
428.473469 31.68 m
633.453061 31.68 l
stroke
grestore
gsave
694.946939 31.68 m
899.926531 31.68 l
899.926531 253.44 l
694.946939 253.44 l
cl
1.000 setgray
fill
grestore
1 setlinejoin
0 setlinecap
[] 0 setdash
gsave
/o {
gsave
newpath
translate
0.8 setlinewidth
1 setlinejoin
0 setlinecap
0 0 m
0 -3.5 l

gsave
0.000 setgray
fill
grestore
stroke
grestore
} bind def
694.947 31.68 o
grestore
gsave
684.759439 12.523750 translate
0.000000 rotate
0.000000 0.000000 m /three glyphshow
10.179688 0.000000 m /zero glyphshow
grestore
gsave
/o {
gsave
newpath
translate
0.8 setlinewidth
1 setlinejoin
0 setlinecap
0 0 m
0 -3.5 l

gsave
0.000 setgray
fill
grestore
stroke
grestore
} bind def
776.939 31.68 o
grestore
gsave
766.751276 12.523750 translate
0.000000 rotate
0.000000 0.000000 m /four glyphshow
10.179688 0.000000 m /zero glyphshow
grestore
gsave
/o {
gsave
newpath
translate
0.8 setlinewidth
1 setlinejoin
0 setlinecap
0 0 m
0 -3.5 l

gsave
0.000 setgray
fill
grestore
stroke
grestore
} bind def
858.931 31.68 o
grestore
gsave
848.743112 12.523750 translate
0.000000 rotate
0.000000 0.000000 m /five glyphshow
10.179688 0.000000 m /zero glyphshow
grestore
gsave
/o {
gsave
newpath
translate
0.8 setlinewidth
1 setlinejoin
0 setlinecap
0 0 m
-3.5 0 l

gsave
0.000 setgray
fill
grestore
stroke
grestore
} bind def
694.947 31.68 o
grestore
gsave
677.759439 25.601875 translate
0.000000 rotate
0.000000 0.000000 m /zero glyphshow
grestore
gsave
/o {
gsave
newpath
translate
0.8 setlinewidth
1 setlinejoin
0 setlinecap
0 0 m
-3.5 0 l

gsave
0.000 setgray
fill
grestore
stroke
grestore
} bind def
694.947 68.64 o
grestore
gsave
677.759439 62.561875 translate
0.000000 rotate
0.000000 0.000000 m /five glyphshow
grestore
gsave
/o {
gsave
newpath
translate
0.8 setlinewidth
1 setlinejoin
0 setlinecap
0 0 m
-3.5 0 l

gsave
0.000 setgray
fill
grestore
stroke
grestore
} bind def
694.947 105.6 o
grestore
gsave
667.571939 99.521875 translate
0.000000 rotate
0.000000 0.000000 m /one glyphshow
10.179688 0.000000 m /zero glyphshow
grestore
gsave
/o {
gsave
newpath
translate
0.8 setlinewidth
1 setlinejoin
0 setlinecap
0 0 m
-3.5 0 l

gsave
0.000 setgray
fill
grestore
stroke
grestore
} bind def
694.947 142.56 o
grestore
gsave
667.571939 136.481875 translate
0.000000 rotate
0.000000 0.000000 m /one glyphshow
10.179688 0.000000 m /five glyphshow
grestore
gsave
/o {
gsave
newpath
translate
0.8 setlinewidth
1 setlinejoin
0 setlinecap
0 0 m
-3.5 0 l

gsave
0.000 setgray
fill
grestore
stroke
grestore
} bind def
694.947 179.52 o
grestore
gsave
667.571939 173.441875 translate
0.000000 rotate
0.000000 0.000000 m /two glyphshow
10.179688 0.000000 m /zero glyphshow
grestore
gsave
/o {
gsave
newpath
translate
0.8 setlinewidth
1 setlinejoin
0 setlinecap
0 0 m
-3.5 0 l

gsave
0.000 setgray
fill
grestore
stroke
grestore
} bind def
694.947 216.48 o
grestore
gsave
667.571939 210.401875 translate
0.000000 rotate
0.000000 0.000000 m /two glyphshow
10.179688 0.000000 m /five glyphshow
grestore
gsave
/o {
gsave
newpath
translate
0.8 setlinewidth
1 setlinejoin
0 setlinecap
0 0 m
-3.5 0 l

gsave
0.000 setgray
fill
grestore
stroke
grestore
} bind def
694.947 253.44 o
grestore
gsave
667.571939 247.361875 translate
0.000000 rotate
0.000000 0.000000 m /three glyphshow
10.179688 0.000000 m /zero glyphshow
grestore
1.500 setlinewidth
0.169 0.545 0.153 setrgbcolor
gsave
205 221.8 694.9 31.68 clipbox
722.378292 68.779973 m
722.378292 75.568786 l
stroke
grestore
gsave
205 221.8 694.9 31.68 clipbox
740.909202 100.363097 m
740.909202 118.93252 l
stroke
grestore
gsave
205 221.8 694.9 31.68 clipbox
760.047682 78.663324 m
760.047682 138.739224 l
stroke
grestore
gsave
205 221.8 694.9 31.68 clipbox
779.793733 113.624053 m
779.793733 194.754889 l
stroke
grestore
gsave
205 221.8 694.9 31.68 clipbox
800.147355 108.82908 m
800.147355 199.840557 l
stroke
grestore
gsave
205 221.8 694.9 31.68 clipbox
821.108548 92.498493 m
821.108548 212.393345 l
stroke
grestore
gsave
205 221.8 694.9 31.68 clipbox
842.677312 200.283091 m
842.677312 216.051344 l
stroke
grestore
gsave
205 221.8 694.9 31.68 clipbox
864.853646 203.439553 m
864.853646 218.223944 l
stroke
grestore
1.000 setlinewidth
gsave
205 221.8 694.9 31.68 clipbox
/o {
gsave
newpath
translate
1.0 setlinewidth
1 setlinejoin
0 setlinecap
6 -0 m
-6 0 l

gsave
0.169 0.545 0.153 setrgbcolor
fill
grestore
stroke
grestore
} bind def
722.378 68.78 o
740.909 100.363 o
760.048 78.6633 o
779.794 113.624 o
800.147 108.829 o
821.109 92.4985 o
842.677 200.283 o
864.854 203.44 o
grestore
gsave
205 221.8 694.9 31.68 clipbox
/o {
gsave
newpath
translate
1.0 setlinewidth
1 setlinejoin
0 setlinecap
6 -0 m
-6 0 l

gsave
0.169 0.545 0.153 setrgbcolor
fill
grestore
stroke
grestore
} bind def
722.378 75.5688 o
740.909 118.933 o
760.048 138.739 o
779.794 194.755 o
800.147 199.841 o
821.109 212.393 o
842.677 216.051 o
864.854 218.224 o
grestore
1.500 setlinewidth
[5.55 2.4] 0 setdash
0.745 0.118 0.153 setrgbcolor
gsave
205 221.8 694.9 31.68 clipbox
694.946939 79.728 m
899.926531 79.728 l
stroke
grestore
gsave
205 221.8 694.9 31.68 clipbox
694.946939 127.776 m
899.926531 127.776 l
stroke
grestore
1.000 setlinewidth
0 setlinejoin
[] 0 setdash
0.169 0.545 0.153 setrgbcolor
gsave
205 221.8 694.9 31.68 clipbox
/o {
gsave
newpath
translate
1.0 setlinewidth
0 setlinejoin
0 setlinecap
0 4 m
-4 -4 l
4 -4 l
cl

gsave
0.169 0.545 0.153 setrgbcolor
fill
grestore
stroke
grestore
} bind def
722.378 72.1744 o
740.909 109.648 o
760.048 108.701 o
779.794 154.189 o
800.147 154.335 o
821.109 152.446 o
842.677 208.167 o
864.854 210.832 o
grestore
0.800 setlinewidth
2 setlinecap
[] 0 setdash
0.000 setgray
gsave
694.946939 31.68 m
694.946939 253.44 l
stroke
grestore
gsave
694.946939 31.68 m
899.926531 31.68 l
stroke
grestore
gsave
961.420408 31.68 m
1166.4 31.68 l
1166.4 253.44 l
961.420408 253.44 l
cl
1.000 setgray
fill
grestore
1 setlinejoin
0 setlinecap
[] 0 setdash
gsave
/o {
gsave
newpath
translate
0.8 setlinewidth
1 setlinejoin
0 setlinecap
0 0 m
0 -3.5 l

gsave
0.000 setgray
fill
grestore
stroke
grestore
} bind def
961.42 31.68 o
grestore
gsave
951.232908 12.523750 translate
0.000000 rotate
0.000000 0.000000 m /three glyphshow
10.179688 0.000000 m /zero glyphshow
grestore
gsave
/o {
gsave
newpath
translate
0.8 setlinewidth
1 setlinejoin
0 setlinecap
0 0 m
0 -3.5 l

gsave
0.000 setgray
fill
grestore
stroke
grestore
} bind def
1043.41 31.68 o
grestore
gsave
1033.224745 12.523750 translate
0.000000 rotate
0.000000 0.000000 m /four glyphshow
10.179688 0.000000 m /zero glyphshow
grestore
gsave
/o {
gsave
newpath
translate
0.8 setlinewidth
1 setlinejoin
0 setlinecap
0 0 m
0 -3.5 l

gsave
0.000 setgray
fill
grestore
stroke
grestore
} bind def
1125.4 31.68 o
grestore
gsave
1115.216582 12.523750 translate
0.000000 rotate
0.000000 0.000000 m /five glyphshow
10.179688 0.000000 m /zero glyphshow
grestore
gsave
/o {
gsave
newpath
translate
0.8 setlinewidth
1 setlinejoin
0 setlinecap
0 0 m
-3.5 0 l

gsave
0.000 setgray
fill
grestore
stroke
grestore
} bind def
961.42 31.68 o
grestore
gsave
944.232908 25.601875 translate
0.000000 rotate
0.000000 0.000000 m /zero glyphshow
grestore
gsave
/o {
gsave
newpath
translate
0.8 setlinewidth
1 setlinejoin
0 setlinecap
0 0 m
-3.5 0 l

gsave
0.000 setgray
fill
grestore
stroke
grestore
} bind def
961.42 68.64 o
grestore
gsave
944.232908 62.561875 translate
0.000000 rotate
0.000000 0.000000 m /five glyphshow
grestore
gsave
/o {
gsave
newpath
translate
0.8 setlinewidth
1 setlinejoin
0 setlinecap
0 0 m
-3.5 0 l

gsave
0.000 setgray
fill
grestore
stroke
grestore
} bind def
961.42 105.6 o
grestore
gsave
934.045408 99.521875 translate
0.000000 rotate
0.000000 0.000000 m /one glyphshow
10.179688 0.000000 m /zero glyphshow
grestore
gsave
/o {
gsave
newpath
translate
0.8 setlinewidth
1 setlinejoin
0 setlinecap
0 0 m
-3.5 0 l

gsave
0.000 setgray
fill
grestore
stroke
grestore
} bind def
961.42 142.56 o
grestore
gsave
934.045408 136.481875 translate
0.000000 rotate
0.000000 0.000000 m /one glyphshow
10.179688 0.000000 m /five glyphshow
grestore
gsave
/o {
gsave
newpath
translate
0.8 setlinewidth
1 setlinejoin
0 setlinecap
0 0 m
-3.5 0 l

gsave
0.000 setgray
fill
grestore
stroke
grestore
} bind def
961.42 179.52 o
grestore
gsave
934.045408 173.441875 translate
0.000000 rotate
0.000000 0.000000 m /two glyphshow
10.179688 0.000000 m /zero glyphshow
grestore
gsave
/o {
gsave
newpath
translate
0.8 setlinewidth
1 setlinejoin
0 setlinecap
0 0 m
-3.5 0 l

gsave
0.000 setgray
fill
grestore
stroke
grestore
} bind def
961.42 216.48 o
grestore
gsave
934.045408 210.401875 translate
0.000000 rotate
0.000000 0.000000 m /two glyphshow
10.179688 0.000000 m /five glyphshow
grestore
gsave
/o {
gsave
newpath
translate
0.8 setlinewidth
1 setlinejoin
0 setlinecap
0 0 m
-3.5 0 l

gsave
0.000 setgray
fill
grestore
stroke
grestore
} bind def
961.42 253.44 o
grestore
gsave
934.045408 247.361875 translate
0.000000 rotate
0.000000 0.000000 m /three glyphshow
10.179688 0.000000 m /zero glyphshow
grestore
1.500 setlinewidth
0.169 0.545 0.153 setrgbcolor
gsave
205 221.8 961.4 31.68 clipbox
988.851761 71.607157 m
988.851761 93.402966 l
stroke
grestore
gsave
205 221.8 961.4 31.68 clipbox
1007.382671 79.677033 m
1007.382671 115.009367 l
stroke
grestore
gsave
205 221.8 961.4 31.68 clipbox
1026.521151 85.065705 m
1026.521151 198.02495 l
stroke
grestore
gsave
205 221.8 961.4 31.68 clipbox
1046.267203 106.986757 m
1046.267203 191.050133 l
stroke
grestore
gsave
205 221.8 961.4 31.68 clipbox
1066.620825 151.273186 m
1066.620825 226.676902 l
stroke
grestore
gsave
205 221.8 961.4 31.68 clipbox
1087.582018 133.947923 m
1087.582018 224.756868 l
stroke
grestore
gsave
205 221.8 961.4 31.68 clipbox
1109.150781 158.326499 m
1109.150781 210.464075 l
stroke
grestore
gsave
205 221.8 961.4 31.68 clipbox
1131.327116 175.542094 m
1131.327116 224.192278 l
stroke
grestore
1.000 setlinewidth
gsave
205 221.8 961.4 31.68 clipbox
/o {
gsave
newpath
translate
1.0 setlinewidth
1 setlinejoin
0 setlinecap
6 -0 m
-6 0 l

gsave
0.169 0.545 0.153 setrgbcolor
fill
grestore
stroke
grestore
} bind def
988.852 71.6072 o
1007.38 79.677 o
1026.52 85.0657 o
1046.27 106.987 o
1066.62 151.273 o
1087.58 133.948 o
1109.15 158.326 o
1131.33 175.542 o
grestore
gsave
205 221.8 961.4 31.68 clipbox
/o {
gsave
newpath
translate
1.0 setlinewidth
1 setlinejoin
0 setlinecap
6 -0 m
-6 0 l

gsave
0.169 0.545 0.153 setrgbcolor
fill
grestore
stroke
grestore
} bind def
988.852 93.403 o
1007.38 115.009 o
1026.52 198.025 o
1046.27 191.05 o
1066.62 226.677 o
1087.58 224.757 o
1109.15 210.464 o
1131.33 224.192 o
grestore
1.500 setlinewidth
[5.55 2.4] 0 setdash
0.745 0.118 0.153 setrgbcolor
gsave
205 221.8 961.4 31.68 clipbox
961.420408 79.728 m
1166.4 79.728 l
stroke
grestore
gsave
205 221.8 961.4 31.68 clipbox
961.420408 127.776 m
1166.4 127.776 l
stroke
grestore
1.000 setlinewidth
0 setlinejoin
[] 0 setdash
0.169 0.545 0.153 setrgbcolor
gsave
205 221.8 961.4 31.68 clipbox
/o {
gsave
newpath
translate
1.0 setlinewidth
0 setlinejoin
0 setlinecap
0 4 m
-4 -4 l
4 -4 l
cl

gsave
0.169 0.545 0.153 setrgbcolor
fill
grestore
stroke
grestore
} bind def
988.852 82.5051 o
1007.38 97.3432 o
1026.52 141.545 o
1046.27 149.018 o
1066.62 188.975 o
1087.58 179.352 o
1109.15 184.395 o
1131.33 199.867 o
grestore
0.800 setlinewidth
2 setlinecap
[] 0 setdash
0.000 setgray
gsave
961.420408 31.68 m
961.420408 253.44 l
stroke
grestore
gsave
961.420408 31.68 m
1166.4 31.68 l
stroke
grestore

end
showpage
