%!PS-Adobe-3.0 EPSF-3.0
%%Title: images/refined_comparison.eps
%%Creator: matplotlib version 2.2.2, http://matplotlib.org/
%%CreationDate: Wed Aug 22 16:18:20 2018
%%Orientation: portrait
%%BoundingBox: -126 72 738 720
%%EndComments
%%BeginProlog
/mpldict 8 dict def
mpldict begin
/m { moveto } bind def
/l { lineto } bind def
/r { rlineto } bind def
/c { curveto } bind def
/cl { closepath } bind def
/box {
m
1 index 0 r
0 exch r
neg 0 r
cl
} bind def
/clipbox {
box
clip
newpath
} bind def
%!PS-Adobe-3.0 Resource-Font
%%Title: DejaVu Sans
%%Copyright: Copyright (c) 2003 by Bitstream, Inc. All Rights Reserved. Copyright (c) 2006 by Tavmjong Bah. All Rights Reserved. DejaVu changes are in public domain 
%%Creator: Converted from TrueType to type 3 by PPR
25 dict begin
/_d{bind def}bind def
/_m{moveto}_d
/_l{lineto}_d
/_cl{closepath eofill}_d
/_c{curveto}_d
/_sc{7 -1 roll{setcachedevice}{pop pop pop pop pop pop}ifelse}_d
/_e{exec}_d
/FontName /DejaVuSans def
/PaintType 0 def
/FontMatrix[.001 0 0 .001 0 0]def
/FontBBox[-1021 -463 1793 1232]def
/FontType 3 def
/Encoding [ /zero /one /two /three /four /five /six /eight ] def
/FontInfo 10 dict dup begin
/FamilyName (DejaVu Sans) def
/FullName (DejaVu Sans) def
/Notice (Copyright (c) 2003 by Bitstream, Inc. All Rights Reserved. Copyright (c) 2006 by Tavmjong Bah. All Rights Reserved. DejaVu changes are in public domain ) def
/Weight (Book) def
/Version (Version 2.35) def
/ItalicAngle 0.0 def
/isFixedPitch false def
/UnderlinePosition -130 def
/UnderlineThickness 90 def
end readonly def
/CharStrings 9 dict dup begin
/.notdef 0 def
/zero{636 0 66 -13 570 742 _sc
318 664 _m
267 664 229 639 203 589 _c
177 539 165 464 165 364 _c
165 264 177 189 203 139 _c
229 89 267 64 318 64 _c
369 64 407 89 433 139 _c
458 189 471 264 471 364 _c
471 464 458 539 433 589 _c
407 639 369 664 318 664 _c
318 742 _m
399 742 461 709 505 645 _c
548 580 570 486 570 364 _c
570 241 548 147 505 83 _c
461 19 399 -13 318 -13 _c
236 -13 173 19 130 83 _c
87 147 66 241 66 364 _c
66 486 87 580 130 645 _c
173 709 236 742 318 742 _c
_cl}_d
/one{636 0 110 0 544 729 _sc
124 83 _m
285 83 _l
285 639 _l
110 604 _l
110 694 _l
284 729 _l
383 729 _l
383 83 _l
544 83 _l
544 0 _l
124 0 _l
124 83 _l
_cl}_d
/two{{636 0 73 0 536 742 _sc
192 83 _m
536 83 _l
536 0 _l
73 0 _l
73 83 _l
110 121 161 173 226 239 _c
290 304 331 346 348 365 _c
380 400 402 430 414 455 _c
426 479 433 504 433 528 _c
433 566 419 598 392 622 _c
365 646 330 659 286 659 _c
255 659 222 653 188 643 _c
154 632 117 616 78 594 _c
78 694 _l
118 710 155 722 189 730 _c
223 738 255 742 284 742 _c
}_e{359 742 419 723 464 685 _c
509 647 532 597 532 534 _c
532 504 526 475 515 449 _c
504 422 484 390 454 354 _c
446 344 420 317 376 272 _c
332 227 271 164 192 83 _c
_cl}_e}_d
/three{{636 0 76 -13 556 742 _sc
406 393 _m
453 383 490 362 516 330 _c
542 298 556 258 556 212 _c
556 140 531 84 482 45 _c
432 6 362 -13 271 -13 _c
240 -13 208 -10 176 -4 _c
144 1 110 10 76 22 _c
76 117 _l
103 101 133 89 166 81 _c
198 73 232 69 268 69 _c
330 69 377 81 409 105 _c
441 129 458 165 458 212 _c
458 254 443 288 413 312 _c
383 336 341 349 287 349 _c
}_e{202 349 _l
202 430 _l
291 430 _l
339 430 376 439 402 459 _c
428 478 441 506 441 543 _c
441 580 427 609 401 629 _c
374 649 336 659 287 659 _c
260 659 231 656 200 650 _c
169 644 135 635 98 623 _c
98 711 _l
135 721 170 729 203 734 _c
235 739 266 742 296 742 _c
370 742 429 725 473 691 _c
517 657 539 611 539 553 _c
539 513 527 479 504 451 _c
481 423 448 403 406 393 _c
_cl}_e}_d
/four{636 0 49 0 580 729 _sc
378 643 _m
129 254 _l
378 254 _l
378 643 _l
352 729 _m
476 729 _l
476 254 _l
580 254 _l
580 172 _l
476 172 _l
476 0 _l
378 0 _l
378 172 _l
49 172 _l
49 267 _l
352 729 _l
_cl}_d
/five{{636 0 77 -13 549 729 _sc
108 729 _m
495 729 _l
495 646 _l
198 646 _l
198 467 _l
212 472 227 476 241 478 _c
255 480 270 482 284 482 _c
365 482 429 459 477 415 _c
525 370 549 310 549 234 _c
549 155 524 94 475 51 _c
426 8 357 -13 269 -13 _c
238 -13 207 -10 175 -6 _c
143 -1 111 6 77 17 _c
77 116 _l
106 100 136 88 168 80 _c
199 72 232 69 267 69 _c
}_e{323 69 368 83 401 113 _c
433 143 450 183 450 234 _c
450 284 433 324 401 354 _c
368 384 323 399 267 399 _c
241 399 214 396 188 390 _c
162 384 135 375 108 363 _c
108 729 _l
_cl}_e}_d
/six{{636 0 70 -13 573 742 _sc
330 404 _m
286 404 251 388 225 358 _c
199 328 186 286 186 234 _c
186 181 199 139 225 109 _c
251 79 286 64 330 64 _c
374 64 409 79 435 109 _c
461 139 474 181 474 234 _c
474 286 461 328 435 358 _c
409 388 374 404 330 404 _c
526 713 _m
526 623 _l
501 635 476 644 451 650 _c
425 656 400 659 376 659 _c
310 659 260 637 226 593 _c
}_e{192 549 172 482 168 394 _c
187 422 211 444 240 459 _c
269 474 301 482 336 482 _c
409 482 467 459 509 415 _c
551 371 573 310 573 234 _c
573 159 550 99 506 54 _c
462 9 403 -13 330 -13 _c
246 -13 181 19 137 83 _c
92 147 70 241 70 364 _c
70 479 97 571 152 639 _c
206 707 280 742 372 742 _c
396 742 421 739 447 735 _c
472 730 498 723 526 713 _c
_cl}_e}_d
/eight{{636 0 68 -13 568 742 _sc
318 346 _m
271 346 234 333 207 308 _c
180 283 167 249 167 205 _c
167 161 180 126 207 101 _c
234 76 271 64 318 64 _c
364 64 401 76 428 102 _c
455 127 469 161 469 205 _c
469 249 455 283 429 308 _c
402 333 365 346 318 346 _c
219 388 _m
177 398 144 418 120 447 _c
96 476 85 511 85 553 _c
85 611 105 657 147 691 _c
188 725 245 742 318 742 _c
}_e{390 742 447 725 489 691 _c
530 657 551 611 551 553 _c
551 511 539 476 515 447 _c
491 418 459 398 417 388 _c
464 377 501 355 528 323 _c
554 291 568 251 568 205 _c
568 134 546 80 503 43 _c
459 5 398 -13 318 -13 _c
237 -13 175 5 132 43 _c
89 80 68 134 68 205 _c
68 251 81 291 108 323 _c
134 355 171 377 219 388 _c
183 544 _m
183 506 194 476 218 455 _c
}_e{242 434 275 424 318 424 _c
360 424 393 434 417 455 _c
441 476 453 506 453 544 _c
453 582 441 611 417 632 _c
393 653 360 664 318 664 _c
275 664 242 653 218 632 _c
194 611 183 582 183 544 _c
_cl}_e}_d
end readonly def

/BuildGlyph
 {exch begin
 CharStrings exch
 2 copy known not{pop /.notdef}if
 true 3 1 roll get exec
 end}_d

/BuildChar {
 1 index /Encoding get exch get
 1 index /BuildGlyph get exec
}_d

FontName currentdict end definefont pop
end
%%EndProlog
mpldict begin
-126 72 translate
864 648 0 0 clipbox
gsave
0 0 m
864 0 l
864 648 l
0 648 l
cl
1.000 setgray
fill
grestore
gsave
108 71.28 m
777.6 71.28 l
777.6 570.24 l
108 570.24 l
cl
1.000 setgray
fill
grestore
0.800 setlinewidth
1 setlinejoin
0 setlinecap
[] 0 setdash
0.000 setgray
gsave
/o {
gsave
newpath
translate
0.8 setlinewidth
1 setlinejoin
0 setlinecap
0 0 m
0 -3.5 l

gsave
0.000 setgray
fill
grestore
stroke
grestore
} bind def
163.8 71.28 o
grestore
/DejaVuSans findfont
16.000 scalefont
setfont
gsave
153.612500 52.123750 translate
0.000000 rotate
0.000000 0.000000 m /four glyphshow
10.179688 0.000000 m /zero glyphshow
grestore
gsave
/o {
gsave
newpath
translate
0.8 setlinewidth
1 setlinejoin
0 setlinecap
0 0 m
0 -3.5 l

gsave
0.000 setgray
fill
grestore
stroke
grestore
} bind def
275.4 71.28 o
grestore
gsave
265.212500 52.123750 translate
0.000000 rotate
0.000000 0.000000 m /six glyphshow
10.179688 0.000000 m /zero glyphshow
grestore
gsave
/o {
gsave
newpath
translate
0.8 setlinewidth
1 setlinejoin
0 setlinecap
0 0 m
0 -3.5 l

gsave
0.000 setgray
fill
grestore
stroke
grestore
} bind def
387 71.28 o
grestore
gsave
376.812500 52.123750 translate
0.000000 rotate
0.000000 0.000000 m /eight glyphshow
10.179688 0.000000 m /zero glyphshow
grestore
gsave
/o {
gsave
newpath
translate
0.8 setlinewidth
1 setlinejoin
0 setlinecap
0 0 m
0 -3.5 l

gsave
0.000 setgray
fill
grestore
stroke
grestore
} bind def
498.6 71.28 o
grestore
gsave
483.318750 52.123750 translate
0.000000 rotate
0.000000 0.000000 m /one glyphshow
10.179688 0.000000 m /zero glyphshow
20.359375 0.000000 m /zero glyphshow
grestore
gsave
/o {
gsave
newpath
translate
0.8 setlinewidth
1 setlinejoin
0 setlinecap
0 0 m
0 -3.5 l

gsave
0.000 setgray
fill
grestore
stroke
grestore
} bind def
610.2 71.28 o
grestore
gsave
594.918750 52.123750 translate
0.000000 rotate
0.000000 0.000000 m /one glyphshow
10.179688 0.000000 m /two glyphshow
20.359375 0.000000 m /zero glyphshow
grestore
gsave
/o {
gsave
newpath
translate
0.8 setlinewidth
1 setlinejoin
0 setlinecap
0 0 m
0 -3.5 l

gsave
0.000 setgray
fill
grestore
stroke
grestore
} bind def
721.8 71.28 o
grestore
gsave
706.518750 52.123750 translate
0.000000 rotate
0.000000 0.000000 m /one glyphshow
10.179688 0.000000 m /four glyphshow
20.359375 0.000000 m /zero glyphshow
grestore
gsave
/o {
gsave
newpath
translate
0.8 setlinewidth
1 setlinejoin
0 setlinecap
0 0 m
-3.5 0 l

gsave
0.000 setgray
fill
grestore
stroke
grestore
} bind def
108 71.28 o
grestore
gsave
90.812500 65.201875 translate
0.000000 rotate
0.000000 0.000000 m /zero glyphshow
grestore
gsave
/o {
gsave
newpath
translate
0.8 setlinewidth
1 setlinejoin
0 setlinecap
0 0 m
-3.5 0 l

gsave
0.000 setgray
fill
grestore
stroke
grestore
} bind def
108 154.44 o
grestore
gsave
90.812500 148.361875 translate
0.000000 rotate
0.000000 0.000000 m /five glyphshow
grestore
gsave
/o {
gsave
newpath
translate
0.8 setlinewidth
1 setlinejoin
0 setlinecap
0 0 m
-3.5 0 l

gsave
0.000 setgray
fill
grestore
stroke
grestore
} bind def
108 237.6 o
grestore
gsave
80.625000 231.521875 translate
0.000000 rotate
0.000000 0.000000 m /one glyphshow
10.179688 0.000000 m /zero glyphshow
grestore
gsave
/o {
gsave
newpath
translate
0.8 setlinewidth
1 setlinejoin
0 setlinecap
0 0 m
-3.5 0 l

gsave
0.000 setgray
fill
grestore
stroke
grestore
} bind def
108 320.76 o
grestore
gsave
80.625000 314.681875 translate
0.000000 rotate
0.000000 0.000000 m /one glyphshow
10.179688 0.000000 m /five glyphshow
grestore
gsave
/o {
gsave
newpath
translate
0.8 setlinewidth
1 setlinejoin
0 setlinecap
0 0 m
-3.5 0 l

gsave
0.000 setgray
fill
grestore
stroke
grestore
} bind def
108 403.92 o
grestore
gsave
80.625000 397.841875 translate
0.000000 rotate
0.000000 0.000000 m /two glyphshow
10.179688 0.000000 m /zero glyphshow
grestore
gsave
/o {
gsave
newpath
translate
0.8 setlinewidth
1 setlinejoin
0 setlinecap
0 0 m
-3.5 0 l

gsave
0.000 setgray
fill
grestore
stroke
grestore
} bind def
108 487.08 o
grestore
gsave
80.625000 481.001875 translate
0.000000 rotate
0.000000 0.000000 m /two glyphshow
10.179688 0.000000 m /five glyphshow
grestore
gsave
/o {
gsave
newpath
translate
0.8 setlinewidth
1 setlinejoin
0 setlinecap
0 0 m
-3.5 0 l

gsave
0.000 setgray
fill
grestore
stroke
grestore
} bind def
108 570.24 o
grestore
gsave
80.625000 564.161875 translate
0.000000 rotate
0.000000 0.000000 m /three glyphshow
10.179688 0.000000 m /zero glyphshow
grestore
1.500 setlinewidth
0.169 0.545 0.153 setrgbcolor
gsave
669.6 499 108 71.28 clipbox
126.66856 171.700209 m
126.66856 174.126232 l
stroke
grestore
gsave
669.6 499 108 71.28 clipbox
139.279873 131.969772 m
139.279873 320.305247 l
stroke
grestore
gsave
669.6 499 108 71.28 clipbox
152.304673 142.296814 m
152.304673 342.633743 l
stroke
grestore
gsave
669.6 499 108 71.28 clipbox
165.742957 126.282162 m
165.742957 314.240899 l
stroke
grestore
gsave
669.6 499 108 71.28 clipbox
179.594728 144.232571 m
179.594728 439.99157 l
stroke
grestore
gsave
669.6 499 108 71.28 clipbox
193.859984 150.007331 m
193.859984 383.135632 l
stroke
grestore
gsave
669.6 499 108 71.28 clipbox
208.538726 204.770113 m
208.538726 480.110675 l
stroke
grestore
gsave
669.6 499 108 71.28 clipbox
223.630954 270.689809 m
223.630954 518.073795 l
stroke
grestore
0.157 0.322 0.529 setrgbcolor
gsave
669.6 499 108 71.28 clipbox
223.630954 159.703056 m
223.630954 187.432476 l
stroke
grestore
gsave
669.6 499 108 71.28 clipbox
239.136667 156.320902 m
239.136667 187.180371 l
stroke
grestore
gsave
669.6 499 108 71.28 clipbox
255.055866 171.358349 m
255.055866 210.218827 l
stroke
grestore
gsave
669.6 499 108 71.28 clipbox
271.388551 190.228644 m
271.388551 205.119467 l
stroke
grestore
gsave
669.6 499 108 71.28 clipbox
288.134721 187.964786 m
288.134721 240.012038 l
stroke
grestore
gsave
669.6 499 108 71.28 clipbox
305.294377 176.358233 m
305.294377 210.09127 l
stroke
grestore
gsave
669.6 499 108 71.28 clipbox
322.867519 183.500291 m
322.867519 232.341125 l
stroke
grestore
gsave
669.6 499 108 71.28 clipbox
340.854146 206.148902 m
340.854146 285.277354 l
stroke
grestore
gsave
669.6 499 108 71.28 clipbox
359.25426 215.044524 m
359.25426 271.331566 l
stroke
grestore
gsave
669.6 499 108 71.28 clipbox
378.067858 216.04883 m
378.067858 279.354111 l
stroke
grestore
gsave
669.6 499 108 71.28 clipbox
397.294943 278.472869 m
397.294943 339.299003 l
stroke
grestore
gsave
669.6 499 108 71.28 clipbox
416.935513 274.29585 m
416.935513 315.199376 l
stroke
grestore
gsave
669.6 499 108 71.28 clipbox
436.989569 201.237174 m
436.989569 326.675186 l
stroke
grestore
gsave
669.6 499 108 71.28 clipbox
457.457111 263.686794 m
457.457111 350.440909 l
stroke
grestore
gsave
669.6 499 108 71.28 clipbox
478.338138 329.858195 m
478.338138 413.404244 l
stroke
grestore
gsave
669.6 499 108 71.28 clipbox
499.632651 289.496037 m
499.632651 382.176753 l
stroke
grestore
gsave
669.6 499 108 71.28 clipbox
521.340649 317.60184 m
521.340649 409.306296 l
stroke
grestore
gsave
669.6 499 108 71.28 clipbox
543.462134 331.83535 m
543.462134 409.711109 l
stroke
grestore
gsave
669.6 499 108 71.28 clipbox
565.997104 325.570056 m
565.997104 430.208385 l
stroke
grestore
gsave
669.6 499 108 71.28 clipbox
588.94556 377.522126 m
588.94556 444.364524 l
stroke
grestore
gsave
669.6 499 108 71.28 clipbox
612.307501 348.956074 m
612.307501 431.357263 l
stroke
grestore
gsave
669.6 499 108 71.28 clipbox
636.082928 403.446991 m
636.082928 446.681536 l
stroke
grestore
gsave
669.6 499 108 71.28 clipbox
660.271841 394.691823 m
660.271841 453.759572 l
stroke
grestore
gsave
669.6 499 108 71.28 clipbox
684.874239 417.67851 m
684.874239 444.227849 l
stroke
grestore
1.000 setlinewidth
0.169 0.545 0.153 setrgbcolor
gsave
669.6 499 108 71.28 clipbox
/o {
gsave
newpath
translate
1.0 setlinewidth
1 setlinejoin
0 setlinecap
6 -0 m
-6 0 l

gsave
0.169 0.545 0.153 setrgbcolor
fill
grestore
stroke
grestore
} bind def
126.669 171.7 o
139.28 131.97 o
152.305 142.297 o
165.743 126.282 o
179.595 144.233 o
193.86 150.007 o
208.539 204.77 o
223.631 270.69 o
grestore
gsave
669.6 499 108 71.28 clipbox
/o {
gsave
newpath
translate
1.0 setlinewidth
1 setlinejoin
0 setlinecap
6 -0 m
-6 0 l

gsave
0.169 0.545 0.153 setrgbcolor
fill
grestore
stroke
grestore
} bind def
126.669 174.126 o
139.28 320.305 o
152.305 342.634 o
165.743 314.241 o
179.595 439.992 o
193.86 383.136 o
208.539 480.111 o
223.631 518.074 o
grestore
0.157 0.322 0.529 setrgbcolor
gsave
669.6 499 108 71.28 clipbox
/o {
gsave
newpath
translate
1.0 setlinewidth
1 setlinejoin
0 setlinecap
6 -0 m
-6 0 l

gsave
0.157 0.322 0.529 setrgbcolor
fill
grestore
stroke
grestore
} bind def
223.631 159.703 o
239.137 156.321 o
255.056 171.358 o
271.389 190.229 o
288.135 187.965 o
305.294 176.358 o
322.868 183.5 o
340.854 206.149 o
359.254 215.045 o
378.068 216.049 o
397.295 278.473 o
416.936 274.296 o
436.99 201.237 o
457.457 263.687 o
478.338 329.858 o
499.633 289.496 o
521.341 317.602 o
543.462 331.835 o
565.997 325.57 o
588.946 377.522 o
612.308 348.956 o
636.083 403.447 o
660.272 394.692 o
684.874 417.679 o
grestore
gsave
669.6 499 108 71.28 clipbox
/o {
gsave
newpath
translate
1.0 setlinewidth
1 setlinejoin
0 setlinecap
6 -0 m
-6 0 l

gsave
0.157 0.322 0.529 setrgbcolor
fill
grestore
stroke
grestore
} bind def
223.631 187.432 o
239.137 187.18 o
255.056 210.219 o
271.389 205.119 o
288.135 240.012 o
305.294 210.091 o
322.868 232.341 o
340.854 285.277 o
359.254 271.332 o
378.068 279.354 o
397.295 339.299 o
416.936 315.199 o
436.99 326.675 o
457.457 350.441 o
478.338 413.404 o
499.633 382.177 o
521.341 409.306 o
543.462 409.711 o
565.997 430.208 o
588.946 444.365 o
612.308 431.357 o
636.083 446.682 o
660.272 453.76 o
684.874 444.228 o
grestore
1.500 setlinewidth
[1.5 2.475] 0 setdash
0.000 0.573 0.573 setrgbcolor
gsave
669.6 499 108 71.28 clipbox
108 179.388 m
777.6 179.388 l
stroke
grestore
[5.55 2.4] 0 setdash
0.573 0.000 0.000 setrgbcolor
gsave
669.6 499 108 71.28 clipbox
108 287.496 m
777.6 287.496 l
stroke
grestore
1.000 setlinewidth
0 setlinejoin
[] 0 setdash
0.169 0.545 0.153 setrgbcolor
gsave
669.6 499 108 71.28 clipbox
/o {
gsave
newpath
translate
1.0 setlinewidth
0 setlinejoin
0 setlinecap
0 4 m
-4 -4 l
4 -4 l
cl

gsave
0.169 0.545 0.153 setrgbcolor
fill
grestore
stroke
grestore
} bind def
126.669 172.913 o
139.28 226.138 o
152.305 242.465 o
165.743 220.262 o
179.595 292.112 o
193.86 266.571 o
208.539 342.44 o
223.631 394.382 o
grestore
1 setlinejoin
0.157 0.322 0.529 setrgbcolor
gsave
669.6 499 108 71.28 clipbox
/o {
gsave
newpath
translate
1.0 setlinewidth
1 setlinejoin
0 setlinecap
0 -4 m
1.060812 -4 2.078319 -3.578535 2.828427 -2.828427 c
3.578535 -2.078319 4 -1.060812 4 0 c
4 1.060812 3.578535 2.078319 2.828427 2.828427 c
2.078319 3.578535 1.060812 4 0 4 c
-1.060812 4 -2.078319 3.578535 -2.828427 2.828427 c
-3.578535 2.078319 -4 1.060812 -4 0 c
-4 -1.060812 -3.578535 -2.078319 -2.828427 -2.828427 c
-2.078319 -3.578535 -1.060812 -4 0 -4 c
cl

gsave
0.157 0.322 0.529 setrgbcolor
fill
grestore
stroke
grestore
} bind def
223.631 173.568 o
239.137 171.751 o
255.056 190.789 o
271.389 197.674 o
288.135 213.988 o
305.294 193.225 o
322.868 207.921 o
340.854 245.713 o
359.254 243.188 o
378.068 247.701 o
397.295 308.886 o
416.936 294.748 o
436.99 263.956 o
457.457 307.064 o
478.338 371.631 o
499.633 335.836 o
521.341 363.454 o
543.462 370.773 o
565.997 377.889 o
588.946 410.943 o
612.308 390.157 o
636.083 425.064 o
660.272 424.226 o
684.874 430.953 o
grestore
0.800 setlinewidth
0 setlinejoin
2 setlinecap
[] 0 setdash
0.000 setgray
gsave
108 71.28 m
108 570.24 l
stroke
grestore
gsave
108 71.28 m
777.6 71.28 l
stroke
grestore

end
showpage
